<?xml version="1.0" encoding="utf-8"?><svg xmlns="http://www.w3.org/2000/svg" xmlns:xlink="http://www.w3.org/1999/xlink" width="1846" height="580" preserveAspectRatio="xMidYMid" viewBox="0 0 1846 580" style="z-index:1;margin-right:-2px;display:block;background-repeat-y:initial;background-repeat-x:initial;animation-play-state:paused" ><g transform="translate(923,290) scale(-1,1) translate(-923,-290)" style="transform:matrix(-1, 0, 0, 1, 1846, 0);animation-play-state:paused" ><linearGradient id="lg-0.8670576096583869" x1="0" x2="1" y1="0" y2="0" style="animation-play-state:paused" ><stop stop-color="#1d3f72" offset="0" style="animation-play-state:paused" ></stop>

  
<stop stop-color="#5699d2" offset="1" style="animation-play-state:paused" ></stop></linearGradient>
<path d="M 0 0 L 0 536.519 Q 184.6 200.349 369.2 182.981 T 738.4 -45.1759 T 1107.6 -280.319 T 1476.8 -617.414 T 1846 -832.642 L 1846 0 Z" fill="url(#lg-0.8670576096583869)" opacity="0.4" style="opacity:0.4;animation-play-state:paused" ></path>
<path d="M 0 0 L 0 458.682 Q 184.6 250.933 369.2 218.623 T 738.4 -11.7601 T 1107.6 -373.04 T 1476.8 -687.789 T 1846 -879.52 L 1846 0 Z" fill="url(#lg-0.8670576096583869)" opacity="0.4" style="opacity:0.4;animation-play-state:paused" ></path>
<path d="M 0 0 L 0 546.173 Q 184.6 256.748 369.2 220.928 T 738.4 6.47712 T 1107.6 -283.913 T 1476.8 -577.765 T 1846 -840.535 L 1846 0 Z" fill="url(#lg-0.8670576096583869)" opacity="0.4" style="opacity:0.4;animation-play-state:paused" ></path>
<path d="M 0 0 L 0 434.785 Q 184.6 219.808 369.2 180.844 T 738.4 22.95 T 1107.6 -345.418 T 1476.8 -600.507 T 1846 -783.195 L 1846 0 Z" fill="url(#lg-0.8670576096583869)" opacity="0.4" style="opacity:0.4;animation-play-state:paused" ></path></g></svg>